<?xml version="1.0" encoding="UTF-8"?>
<!DOCTYPE svg PUBLIC "-//W3C//DTD SVG 1.1//EN" "http://www.w3.org/Graphics/SVG/1.1/DTD/svg11.dtd">
<svg xmlns="http://www.w3.org/2000/svg" version="1.1" width="512px" height="512px" style="shape-rendering:geometricPrecision; text-rendering:geometricPrecision; image-rendering:optimizeQuality; fill-rule:evenodd; clip-rule:evenodd" xmlns:xlink="http://www.w3.org/1999/xlink">
<g><path style="opacity:0.971" fill="#fefffe" d="M -0.5,386.5 C -0.5,378.833 -0.5,371.167 -0.5,363.5C 8.66749,329.162 30.3342,306.662 64.5,296C 98.2113,291.794 130.545,282.794 161.5,269C 168.84,264.999 175.84,260.499 182.5,255.5C 161.984,240.816 139.318,230.65 114.5,225C 97.8851,221.41 81.2184,218.077 64.5,215C 30.3074,204.312 8.64069,181.812 -0.5,147.5C -0.5,139.833 -0.5,132.167 -0.5,124.5C 9.23487,91.8313 31.4015,75.1646 66,74.5C 104.864,76.5783 132.864,94.9116 150,129.5C 157.764,148.617 157.264,167.451 148.5,186C 173.245,199.788 197.745,213.954 222,228.5C 286.89,196.305 351.39,163.472 415.5,130C 434.302,126.206 450.969,130.706 465.5,143.5C 400.5,180.833 335.5,218.167 270.5,255.5C 335.167,292.5 399.833,329.5 464.5,366.5C 465.833,367.167 465.833,367.833 464.5,368.5C 450.157,380.56 433.824,384.727 415.5,381C 351.39,347.528 286.89,314.695 222,282.5C 197.745,297.046 173.245,311.212 148.5,325C 157.264,343.549 157.764,362.383 150,381.5C 132.864,416.088 104.864,434.422 66,436.5C 31.3889,435.831 9.2222,419.164 -0.5,386.5 Z M 58.5,112.5 C 83.6859,111.505 102.519,121.839 115,143.5C 122.231,162.539 116.064,174.706 96.5,180C 68.6268,181.766 49.1268,169.932 38,144.5C 34.4898,127.184 41.3232,116.517 58.5,112.5 Z M 80.5,330.5 C 92.8389,328.526 103.672,331.526 113,339.5C 119.435,348.369 120.101,357.702 115,367.5C 104.4,386.745 88.0665,397.078 66,398.5C 40.8931,396.933 32.2264,384.266 40,360.5C 49.3507,344.756 62.8507,334.756 80.5,330.5 Z"/></g>
<g><path style="opacity:0.921" fill="#fefffe" d="M 314.5,245.5 C 330.833,245.5 347.167,245.5 363.5,245.5C 363.5,252.5 363.5,259.5 363.5,266.5C 347.167,266.5 330.833,266.5 314.5,266.5C 314.5,259.5 314.5,252.5 314.5,245.5 Z"/></g>
<g><path style="opacity:0.92" fill="#fefffe" d="M 386.5,245.5 C 402.833,245.5 419.167,245.5 435.5,245.5C 435.5,252.5 435.5,259.5 435.5,266.5C 419.167,266.5 402.833,266.5 386.5,266.5C 386.5,259.5 386.5,252.5 386.5,245.5 Z"/></g>
<g><path style="opacity:0.986" fill="#fefffe" d="M 511.5,245.5 C 511.5,252.167 511.5,258.833 511.5,265.5C 495.5,265.5 479.5,265.5 463.5,265.5C 463.5,258.833 463.5,252.167 463.5,245.5C 479.5,245.5 495.5,245.5 511.5,245.5 Z"/></g>
</svg>
