{
  "Actor":{
    "types":[
      "personnage"
    ],
    "personnage":{
      "stats":{
        "combatskill":0,
        "aimingskill":0,
        "strength":0,
        "dexterity":0,
        "resilience":0,
        "intellect":0,
        "perception":0,
        "mentalstrength":0,
        "charisma":0,
        "technology":0
      },
      "upgradeStats":{
        "combatskill1":false,
        "combatskill2":false,
        "combatskill3":false,
        "combatskill4":false,
        "combatskill5":false,
        "combatskill6":false,
        "combatskill7":false,
        "combatskill8":false,
        "aimingskill1":false,
        "aimingskill2":false,
        "aimingskill3":false,
        "aimingskill4":false,
        "aimingskill5":false,
        "aimingskill6":false,
        "aimingskill7":false,
        "aimingskill8":false,
        "strength1":false,
        "strength2":false,
        "strength3":false,
        "strength4":false,
        "strength5":false,
        "strength6":false,
        "strength7":false,
        "strength8":false,
        "dexterity1":false,
        "dexterity2":false,
        "dexterity3":false,
        "dexterity4":false,
        "dexterity5":false,
        "dexterity6":false,
        "dexterity7":false,
        "dexterity8":false,
        "resilience1":false,
        "resilience2":false,
        "resilience3":false,
        "resilience4":false,
        "resilience5":false,
        "resilience6":false,
        "resilience7":false,
        "resilience8":false,
        "intellect1":false,
        "intellect2":false,
        "intellect3":false,
        "intellect4":false,
        "intellect5":false,
        "intellect6":false,
        "intellect7":false,
        "intellect8":false,
        "perception1":false,
        "perception2":false,
        "perception3":false,
        "perception4":false,
        "perception5":false,
        "perception6":false,
        "perception7":false,
        "perception8":false,
        "mentalstrength1":false,
        "mentalstrength2":false,
        "mentalstrength3":false,
        "mentalstrength4":false,
        "mentalstrength5":false,
        "mentalstrength6":false,
        "mentalstrength7":false,
        "mentalstrength8":false,
        "charisma1":false,
        "charisma2":false,
        "charisma3":false,
        "charisma4":false,
        "charisma5":false,
        "charisma6":false,
        "charisma7":false,
        "charisma8":false,
        "technology1":false,
        "technology2":false,
        "technology3":false,
        "technology4":false,
        "technology5":false,
        "technology6":false,
        "technology7":false,
        "technology8":false
      },
      "ammomagazines":{
        "normal1":false,
        "normal2":false,
        "normal3":false,
        "normal4":false,
        "normal5":false,
        "normal6":false,
        "special1":false,
        "special2":false,
        "special3":false,
        "special4":false,
        "special5":false,
        "heavy1":false,
        "heavy2":false,
        "heavy3":false,
        "heavy4":false
      },
      "health":{
        "value":0,
        "max":0,
        "frozen":0
      },
      "superpoints":{
        "value":0,
        "max":0
      },
      "critWounds":{
        "value":0
      },
      "fatigue":{
        "value":0
      },
      "travelerspower":{
        "value":0
      },
      "lumen":{
        "value":0
      },
      "fate":{
        "value":0,
        "max":0
      },
      "paths":{
        "hopevalue":0,
        "sorrowvalue":0,
        "h20":false,
        "h40":false,
        "h50":false,
        "h60":false,
        "h70":false,
        "h80":false,
        "h90":false,
        "h100":false,
        "h120":false,
        "h140":false,
        "h160":false,
        "h180":false,
        "h200":false,
        "h220":false,
        "h240":false,
        "h260":false,
        "h280":false,
        "h300":false,
        "s20":false,
        "s40":false,
        "s50":false,
        "s60":false,
        "s70":false,
        "s80":false,
        "s90":false,
        "s100":false,
        "s110":false,
        "s120":false,
        "s130":false,
        "s140":false,
        "s150":false,
        "s160":false,
        "s170":false,
        "s180":false,
        "s190":false
      },
      "knowledge":{
        "vanguard1":false,
        "vanguard2":false,
        "vanguard3":false,
        "lastcity1":false,
        "lastcity2":false,
        "lastcity3":false,
        "eliksni1":false,
        "eliksni2":false,
        "eliksni3":false,
        "lightdark1":false,
        "lightdark2":false,
        "lightdark3":false,
        "guardians1":false,
        "guardians2":false,
        "guardians3":false,
        "humans1":false,
        "humans2":false,
        "humans3":false,
        "awokens1":false,
        "awokens2":false,
        "awokens3":false,
        "exos1":false,
        "exos2":false,
        "exos3":false,
        "symbols1":false,
        "symbols2":false,
        "symbols3":false,
        "vehicles1":false,
        "vehicles2":false,
        "vehicles3":false,
        "myths1":false,
        "myths2":false,
        "myths3":false,
        "weaponscrafters1":false,
        "weaponscrafters2":false,
        "weaponscrafters3":false,
        "blackmarket1":false,
        "blackmarket2":false,
        "blackmarket3":false,
        "vex1":false,
        "vex2":false,
        "vex3":false,
        "cabals1":false,
        "cabals2":false,
        "cabals3":false,
        "warminds1":false,
        "warminds2":false,
        "warminds3":false,
        "goldenage1":false,
        "goldenage2":false,
        "goldenage3":false,
        "darkage1":false,
        "darkage2":false,
        "darkage3":false,
        "thehive1":false,
        "thehive2":false,
        "thehive3":false,
        "thesorrow1":false,
        "thesorrow2":false,
        "thesorrow3":false
      },
      "levelBased":{
        "level":0,
        "currentXP":0,
        "totalXP":0
      },
      "class":"hunter",
      "subclass":"gunslinger",
      "secondsubclass":"",
      "path1":"nothing",
      "path2":"nothing",
      "path3":"nothing",
      "path4":"nothing",
      "path5":"nothing",
      "path6":"nothing",
      "path7":"nothing",
      "path8":"nothing",
      "charInfos":{
        "size":"",
        "gender":"",
        "age":"",
        "weight":"",
        "story":"",
        "description":""
      },
      "race":"human",
      "structhealth":0,
      "structarmor":0
    }
  },
  "Item":{
    "types":[
      "weapon",
      "armor",
      "object",
      "trait",
      "skill",
      "flaw",
      "mutation",
      "super",
      "ghost"
    ],
    "templates":{
      "itemDescription":{
        "description":""
      }
    },
    "weapon":{
      "templates":[
        "itemDescription"
      ],
      "rarity":"worn",
      "damage":0,
      "range":0,
      "rangeThrowing":0,
      "weaponType":"melee",
      "weaponElement":"kinetic",
      "weaponScope":"noscope",
      "weaponPenetration":0,
      "weaponMagazineTotal":0,
      "weaponMagazineLeft":0,
      "weaponCrafter":"unknown",
      "perkname":"",
      "perkactivated":false,
      "perkid":"",
      "perk":""
    },
    "armor":{
      "templates":[
        "itemDescription"
      ],
      "rarity":"worn",
      "value":0,
      "armorType":"head",
      "effect":""
    },
    "object":{
      "templates":[
        "itemDescription"
      ],
      "effect":""
    },
    "trait":{
      "effect":"",
      "XPCost":"",
      "linked":"no",
      "requiredLevel":0
    },
    "skill":{
      "templates":[
        "itemDescription"
      ],
      "effect":"",
      "cost":0,
      "createstruct":false,
      "structmonolith":false,
      "structhealth":10,
      "structarmor":0,
      "castTime":"instant",
      "skilltype":"noroll",
      "rollstat1":"CSstat",
      "rollmod1":"affordable",
      "damagedices1":1,
      "damagedicetype1":4,
      "damagestat1":"nothing",
      "rollstat2":"CSstat",
      "rollmod2":"affordable",
      "damagedices2":1,
      "damagedicetype2":4,
      "damagestat2":"nothing",
      "damageelement":"solar"
    },
    "super":{
      "element":"solar",
      "cost":0,
      "duration":"instant",
      "overview":"",
      "templates":[
        "itemDescription"
      ],
      "doesdamage":true,
      "doeseffects":true,
      "damage1dicenum":0,
      "damage2dicenum":0,
      "damage1dicetype":0,
      "damage2dicetype":0,
      "damage1level":"nothing",
      "damage2level":"nothing",
      "effect":"",
      "audio":""
    },
    "ghost":{
      "name":"",
      "personality":"",
      "physicaldescription":"",
      "healthmax":0,
      "health":0,
      "resilience":80
    },
    "flaw":{
      "id":"",
      "effect":"",
      "templates":[
        "itemDescription"
      ]
    },
    "mutation":{
      "id":"",
      "effect":"",
      "templates":[
        "itemDescription"
      ]
    }
  }
}